{"count":4250,"next":"http://185.100.55.56:8009/moderation/auction-diagnostics/?page=2","previous":null,"results":[{"id":4250,"region":null,"phone":"+998888672005","name":"test","type":"diagnostic","created_at":"2025-12-06T14:46:21.902130+05:00","status":"new","arrive_time":null,"description":null,"diagnostics_center":null},{"id":4249,"region":8,"phone":"998901234567","name":"Test User","type":"auction","created_at":"2025-12-06T14:46:19.320730+05:00","status":"new","arrive_time":"2025-12-07T09:46:20.479496+05:00","description":"Diagnostics request test","diagnostics_center":51},{"id":4248,"region":null,"phone":"+998888672005","name":"shaxnoza","type":"diagnostic","created_at":"2025-12-06T14:46:07.633296+05:00","status":"new","arrive_time":null,"description":null,"diagnostics_center":null},{"id":4247,"region":null,"phone":"+998888672005","name":"test","type":"diagnostic","created_at":"2025-12-06T14:41:09.620943+05:00","status":"new","arrive_time":null,"description":null,"diagnostics_center":null},{"id":4246,"region":8,"phone":"998901234567","name":"Test User","type":"auction","created_at":"2025-12-06T14:41:07.362028+05:00","status":"new","arrive_time":"2025-12-07T09:41:08.532208+05:00","description":"Diagnostics request test","diagnostics_center":51},{"id":4245,"region":null,"phone":"+998888672005","name":"shaxnoza","type":"diagnostic","created_at":"2025-12-06T14:40:57.584831+05:00","status":"new","arrive_time":null,"description":null,"diagnostics_center":null},{"id":4244,"region":null,"phone":"+998888672005","name":"test","type":"diagnostic","created_at":"2025-12-06T14:39:19.506081+05:00","status":"new","arrive_time":null,"description":null,"diagnostics_center":null},{"id":4243,"region":8,"phone":"998901234567","name":"Test User","type":"auction","created_at":"2025-12-06T14:39:17.121840+05:00","status":"new","arrive_time":"2025-12-07T09:39:18.301979+05:00","description":"Diagnostics request test","diagnostics_center":51},{"id":4242,"region":null,"phone":"+998888672005","name":"shaxnoza","type":"diagnostic","created_at":"2025-12-06T14:39:06.360615+05:00","status":"new","arrive_time":null,"description":null,"diagnostics_center":null},{"id":4241,"region":null,"phone":"+998888672005","name":"test","type":"diagnostic","created_at":"2025-12-06T14:32:36.061589+05:00","status":"new","arrive_time":null,"description":null,"diagnostics_center":null}]}