{"count":4256,"next":"http://185.100.55.56:8009/moderation/auction-diagnostics/?page=2","previous":null,"results":[{"id":4256,"region":null,"phone":"+998888672005","name":"test","type":"diagnostic","created_at":"2025-12-10T09:56:37.537592+05:00","status":"new","arrive_time":null,"description":null,"diagnostics_center":null},{"id":4255,"region":8,"phone":"998901234567","name":"Test User","type":"auction","created_at":"2025-12-10T09:56:35.090615+05:00","status":"new","arrive_time":"2025-12-11T04:56:34.980799+05:00","description":"Diagnostics request test","diagnostics_center":51},{"id":4254,"region":null,"phone":"+998888672005","name":"shaxnoza","type":"diagnostic","created_at":"2025-12-10T09:56:23.252089+05:00","status":"new","arrive_time":null,"description":null,"diagnostics_center":null},{"id":4253,"region":null,"phone":"+998888672005","name":"test","type":"diagnostic","created_at":"2025-12-10T09:47:16.240264+05:00","status":"new","arrive_time":null,"description":null,"diagnostics_center":null},{"id":4252,"region":8,"phone":"998901234567","name":"Test User","type":"auction","created_at":"2025-12-10T09:47:13.801189+05:00","status":"new","arrive_time":"2025-12-11T04:47:13.708309+05:00","description":"Diagnostics request test","diagnostics_center":51},{"id":4251,"region":null,"phone":"+998888672005","name":"shaxnoza","type":"diagnostic","created_at":"2025-12-10T09:47:03.117334+05:00","status":"new","arrive_time":null,"description":null,"diagnostics_center":null},{"id":4250,"region":null,"phone":"+998888672005","name":"test","type":"diagnostic","created_at":"2025-12-06T14:46:21.902130+05:00","status":"new","arrive_time":null,"description":null,"diagnostics_center":null},{"id":4249,"region":8,"phone":"998901234567","name":"Test User","type":"auction","created_at":"2025-12-06T14:46:19.320730+05:00","status":"new","arrive_time":"2025-12-07T09:46:20.479496+05:00","description":"Diagnostics request test","diagnostics_center":51},{"id":4248,"region":null,"phone":"+998888672005","name":"shaxnoza","type":"diagnostic","created_at":"2025-12-06T14:46:07.633296+05:00","status":"new","arrive_time":null,"description":null,"diagnostics_center":null},{"id":4247,"region":null,"phone":"+998888672005","name":"test","type":"diagnostic","created_at":"2025-12-06T14:41:09.620943+05:00","status":"new","arrive_time":null,"description":null,"diagnostics_center":null}]}