{"count":4235,"next":"http://185.100.55.56:8009/moderation/auction-diagnostics/?page=2","previous":null,"results":[{"id":4235,"region":null,"phone":"+998888672005","name":"test","type":"diagnostic","created_at":"2025-12-06T14:04:54.202844+05:00","status":"new","arrive_time":null,"description":null,"diagnostics_center":null},{"id":4234,"region":8,"phone":"998901234567","name":"Test User","type":"auction","created_at":"2025-12-06T14:04:51.831195+05:00","status":"new","arrive_time":"2025-12-07T09:04:53.031159+05:00","description":"Diagnostics request test","diagnostics_center":51},{"id":4233,"region":null,"phone":"+998888672005","name":"shaxnoza","type":"diagnostic","created_at":"2025-12-06T14:04:41.662400+05:00","status":"new","arrive_time":null,"description":null,"diagnostics_center":null},{"id":4232,"region":null,"phone":"+998888672005","name":"test","type":"diagnostic","created_at":"2025-12-06T14:01:32.138565+05:00","status":"new","arrive_time":null,"description":null,"diagnostics_center":null},{"id":4231,"region":8,"phone":"998901234567","name":"Test User","type":"auction","created_at":"2025-12-06T14:01:29.677611+05:00","status":"new","arrive_time":"2025-12-07T09:01:30.907744+05:00","description":"Diagnostics request test","diagnostics_center":51},{"id":4230,"region":null,"phone":"+998888672005","name":"shaxnoza","type":"diagnostic","created_at":"2025-12-06T14:01:18.927834+05:00","status":"new","arrive_time":null,"description":null,"diagnostics_center":null},{"id":4229,"region":null,"phone":"+998888672005","name":"test","type":"diagnostic","created_at":"2025-12-06T13:57:46.789633+05:00","status":"new","arrive_time":null,"description":null,"diagnostics_center":null},{"id":4228,"region":8,"phone":"998901234567","name":"Test User","type":"auction","created_at":"2025-12-06T13:57:44.421903+05:00","status":"new","arrive_time":"2025-12-07T08:57:45.654482+05:00","description":"Diagnostics request test","diagnostics_center":51},{"id":4227,"region":null,"phone":"+998888672005","name":"shaxnoza","type":"diagnostic","created_at":"2025-12-06T13:57:34.019060+05:00","status":"new","arrive_time":null,"description":null,"diagnostics_center":null},{"id":4226,"region":null,"phone":"+998888672005","name":"test","type":"diagnostic","created_at":"2025-12-06T13:48:51.966137+05:00","status":"new","arrive_time":null,"description":null,"diagnostics_center":null}]}